﻿{
  "errorCode": 0, 
  "errorString": "ok", 
  "hotspots": [
    {
      "anchor": {
        "geolocation": {
          "lat": 17.0612335, 
          "lon": -96.7232861
        }
      }, 
	"icon": {
        "url": "https://bytebucket.org/ramnaven/marc_layar/raw/44121b6996fabcef1a25483a5fdf8ef10422771a/san_pablo.png"
      }, 
      "id": 1,
	   "text": {
        "title": "Biblioteca de Investigación Juan de Córdova"
      }
    } 
  ], 
  "layer": "biblioteca"
    } 